Elizabeth Tyler

Larry Holland
Lucile Kim
Nancy Patterson
Jeremy Becker
Frank Foster

Landon Quinn

Lottie Sparks

Glen Potter
Tyler Cain

Travis Chapman

Christine Henderson

Tom Brady

Minnie Newman

Dennis Schultz

Jayden Andrews

Elnora Wells
Alan Steele
Blanche Pierce

Sam Palmer

Jose Allen

Dennis Malone

Charlotte Moreno

Austin Lawrence